{
  "main.css": "static/css/main.c17080f1.css",
  "main.css.map": "static/css/main.c17080f1.css.map",
  "main.js": "static/js/main.5ead6cb1.js",
  "main.js.map": "static/js/main.5ead6cb1.js.map",
  "static/media/logo.svg": "static/media/logo.5d5d9eef.svg"
}